hw/mul.vcd
$date
  Sat Jul 13 08:06:10 2019
$end
$version
  GHDL v0
$end
$timescale
  1 fs
$end
$scope module standard $end
$upscope $end
$scope module std_logic_1164 $end
$upscope $end
$scope module std_logic_arith $end
$upscope $end
$scope module std_logic_unsigned $end
$upscope $end
$scope module numeric_std $end
$upscope $end
$scope module main_tb $end
$var reg 1 ! clk $end
$var reg 1 " reset $end
$var reg 6 # r0_val[5:0] $end
$var reg 6 $ r1_val[5:0] $end
$var reg 6 % r2_val[5:0] $end
$var reg 6 & r3_val[5:0] $end
$var reg 6 ' pc_val[5:0] $end
$var reg 6 ( ir_val[5:0] $end
$scope module uut $end
$var reg 1 ) clk $end
$var reg 1 * reset $end
$var reg 6 + r0_val[5:0] $end
$var reg 6 , r1_val[5:0] $end
$var reg 6 - r2_val[5:0] $end
$var reg 6 . r3_val[5:0] $end
$var reg 6 / pc_val[5:0] $end
$var reg 6 0 ir_val[5:0] $end
$var reg 1 1 zr0_s $end
$var reg 1 2 zr1_s $end
$var reg 1 3 zr2_s $end
$var reg 1 4 zr3_s $end
$var reg 1 5 ld0_s $end
$var reg 1 6 ld1_s $end
$var reg 1 7 ld2_s $end
$var reg 1 8 ld3_s $end
$var reg 6 9 rout0_s[5:0] $end
$var reg 6 : rout1_s[5:0] $end
$var reg 6 ; rout2_s[5:0] $end
$var reg 6 < rout3_s[5:0] $end
$var reg 6 = rout_pc_s[5:0] $end
$var reg 6 > rout_ir_s[5:0] $end
$var reg 1 ? inc_pc_s $end
$var reg 1 @ rst_pc_s $end
$var reg 1 A sel_bus_s $end
$var reg 6 B bus_s[5:0] $end
$var reg 6 C mem_data_s[5:0] $end
$var reg 6 D alu_in1_s[5:0] $end
$var reg 6 E alu_in2_s[5:0] $end
$var reg 6 F alu_res_s[5:0] $end
$var reg 2 G alu_sel1_s[1:0] $end
$var reg 2 H alu_sel2_s[1:0] $end
$var reg 2 I alu_cmd_s[1:0] $end
$var reg 6 J pc_next[5:0] $end
$var reg 6 K ir_next[5:0] $end
$var reg 2 L ctrl_state[1:0] $end
$var reg 2 M next_ctrl_state[1:0] $end
$scope module r0 $end
$var reg 1 N clk $end
$var reg 1 O reset $end
$var reg 1 P ld $end
$var reg 6 Q rin[5:0] $end
$var reg 6 R rout[5:0] $end
$var reg 1 S zr $end
$var reg 6 T val[5:0] $end
$upscope $end
$scope module r1 $end
$var reg 1 U clk $end
$var reg 1 V reset $end
$var reg 1 W ld $end
$var reg 6 X rin[5:0] $end
$var reg 6 Y rout[5:0] $end
$var reg 1 Z zr $end
$var reg 6 [ val[5:0] $end
$upscope $end
$scope module r2 $end
$var reg 1 \ clk $end
$var reg 1 ] reset $end
$var reg 1 ^ ld $end
$var reg 6 _ rin[5:0] $end
$var reg 6 ` rout[5:0] $end
$var reg 1 a zr $end
$var reg 6 b val[5:0] $end
$upscope $end
$scope module r3 $end
$var reg 1 c clk $end
$var reg 1 d reset $end
$var reg 1 e ld $end
$var reg 6 f rin[5:0] $end
$var reg 6 g rout[5:0] $end
$var reg 1 h zr $end
$var reg 6 i val[5:0] $end
$upscope $end
$scope module im $end
$var reg 6 j addr[5:0] $end
$var reg 6 k data[5:0] $end
$comment mem is not handled $end
$upscope $end
$scope module al $end
$var reg 6 l in1[5:0] $end
$var reg 6 m in2[5:0] $end
$var reg 2 n cmd[1:0] $end
$var reg 6 o res[5:0] $end
$upscope $end
$upscope $end
$upscope $end
$enddefinitions $end
#0
0!
0"
b000000 #
b000000 $
b000000 %
b000000 &
b000000 '
b000000 (
0)
0*
b000000 +
b000000 ,
b000000 -
b000000 .
b000000 /
b000000 0
11
12
13
14
05
06
07
08
b000000 9
b000000 :
b000000 ;
b000000 <
b000000 =
b000000 >
0?
0@
0A
b000000 B
b000000 C
b000000 D
b000000 E
b000000 F
b00 G
b00 H
b10 I
b000000 J
b000000 K
b00 L
b01 M
0N
0O
0P
b000000 Q
b000000 R
1S
b000000 T
0U
0V
0W
b000000 X
b000000 Y
1Z
b000000 [
0\
0]
0^
b000000 _
b000000 `
1a
b000000 b
0c
0d
0e
b000000 f
b000000 g
1h
b000000 i
b000000 j
b000000 k
b000000 l
b000000 m
b10 n
b000000 o
#1000000000000000
1!
1)
b000001 J
b01 L
b10 M
1N
1U
1\
1c
#2000000000000000
0!
0)
0N
0U
0\
0c
#3000000000000000
1!
b000001 '
1)
b000001 /
15
b000001 =
b000010 J
b10 L
b01 M
1N
1P
1U
1\
1c
b000001 j
#4000000000000000
0!
0)
0N
0U
0\
0c
#5000000000000000
1!
b000010 '
1)
b000010 /
05
b000010 =
b000100 B
b000100 C
b000011 J
b000100 K
b01 L
b10 M
1N
0P
b000100 Q
1U
b000100 X
1\
b000100 _
1c
b000100 f
b000010 j
b000100 k
#6000000000000000
0!
0)
0N
0U
0\
0c
#7000000000000000
1!
b000011 '
b000100 (
1)
b000011 /
b000100 0
16
b000011 =
b000100 >
b000111 B
b000111 C
b000100 J
b10 L
b01 M
1N
b000111 Q
1U
1W
b000111 X
1\
b000111 _
1c
b000111 f
b000011 j
b000111 k
#8000000000000000
0!
0)
0N
0U
0\
0c
#9000000000000000
1!
b000111 $
b000100 '
1)
b000111 ,
b000100 /
02
06
b000111 :
b000100 =
b001000 B
b001000 C
b000101 J
b001000 K
b01 L
b10 M
1N
b001000 Q
1U
0W
b001000 X
b000111 Y
0Z
b000111 [
1\
b001000 _
1c
b001000 f
b000100 j
b001000 k
#10000000000000000
0!
0)
0N
0U
0\
0c
#11000000000000000
1!
b000101 '
b001000 (
1)
b000101 /
b001000 0
17
b000101 =
b001000 >
b000110 J
b10 L
b01 M
1N
1U
1\
1^
1c
b000101 j
#12000000000000000
0!
0)
0N
0U
0\
0c
#13000000000000000
1!
b001000 %
b000110 '
1)
b001000 -
b000110 /
03
07
b001000 ;
b000110 =
b001100 B
b001100 C
b000111 J
b001100 K
b01 L
b10 M
1N
b001100 Q
1U
b001100 X
1\
0^
b001100 _
b001000 `
0a
b001000 b
1c
b001100 f
b000110 j
b001100 k
#14000000000000000
0!
0)
0N
0U
0\
0c
#15000000000000000
1!
b000111 '
b001100 (
1)
b000111 /
b001100 0
18
b000111 =
b001100 >
b000001 B
b000001 C
b001000 J
b10 L
b01 M
1N
b000001 Q
1U
b000001 X
1\
b000001 _
1c
1e
b000001 f
b000111 j
b000001 k
#16000000000000000
0!
0)
0N
0U
0\
0c
#17000000000000000
1!
b000001 &
b001000 '
1)
b000001 .
b001000 /
04
08
b000001 <
b001000 =
b010001 B
b010001 C
b001001 J
b010001 K
b01 L
b10 M
1N
b010001 Q
1U
b010001 X
1\
b010001 _
1c
0e
b010001 f
b000001 g
0h
b000001 i
b001000 j
b010001 k
#18000000000000000
0!
0)
0N
0U
0\
0c
#19000000000000000
1!
b001001 '
b010001 (
1)
b001001 /
b010001 0
15
b001001 =
b010001 >
1A
b000111 B
b101011 C
b000111 E
b000111 F
b01 H
b01 I
b10 L
b01 M
1N
1P
b000111 Q
1U
b000111 X
1\
b000111 _
1c
b000111 f
b001001 j
b101011 k
b000111 m
b01 n
b000111 o
#20000000000000000
0!
0)
0N
0U
0\
0c
#21000000000000000
1!
b000111 #
1)
b000111 +
01
05
b000111 9
0A
b101011 B
b000111 D
b001110 F
b001010 J
b101011 K
b01 L
b10 M
1N
0P
b101011 Q
b000111 R
0S
b000111 T
1U
b101011 X
1\
b101011 _
1c
b101011 f
b000111 l
b001110 o
#22000000000000000
0!
0)
0N
0U
0\
0c
#23000000000000000
1!
b001010 '
b101011 (
1)
b001010 /
b101011 0
17
b001010 =
b101011 >
1A
b000111 B
b111000 C
b001000 D
b000001 E
b000111 F
b10 G
b11 H
b10 I
b10 L
b01 M
1N
b000111 Q
1U
b000111 X
1\
1^
b000111 _
1c
b000111 f
b001010 j
b111000 k
b001000 l
b000001 m
b10 n
b000111 o
#24000000000000000
0!
0)
0N
0U
0\
0c
#25000000000000000
1!
b000111 %
1)
b000111 -
07
b000111 ;
0A
b111000 B
b000111 D
b000110 F
b001011 J
b111000 K
b01 L
b10 M
1N
b111000 Q
1U
b111000 X
1\
0^
b111000 _
b000111 `
b000111 b
1c
b111000 f
b000111 l
b000110 o
#26000000000000000
0!
0)
0N
0U
0\
0c
#27000000000000000
1!
b001011 '
b111000 (
1)
b001011 /
b111000 0
b001011 =
b111000 >
b001000 B
b001000 C
b001000 J
b10 L
b01 M
1N
b001000 Q
1U
b001000 X
1\
b001000 _
1c
b001000 f
b001011 j
b001000 k
#28000000000000000
0!
0)
0N
0U
0\
0c
#29000000000000000
1!
b001000 '
1)
b001000 /
b001000 =
b010001 B
b010001 C
b001001 J
b010001 K
b01 L
b10 M
1N
b010001 Q
1U
b010001 X
1\
b010001 _
1c
b010001 f
b001000 j
b010001 k
#30000000000000000
0!
0)
0N
0U
0\
0c
#31000000000000000
1!
b001001 '
b010001 (
1)
b001001 /
b010001 0
15
b001001 =
b010001 >
1A
b001110 B
b101011 C
b000111 E
b001110 F
b00 G
b01 H
b01 I
b10 L
b01 M
1N
1P
b001110 Q
1U
b001110 X
1\
b001110 _
1c
b001110 f
b001001 j
b101011 k
b000111 m
b01 n
b001110 o
#32000000000000000
0!
0)
0N
0U
0\
0c
#33000000000000000
1!
b001110 #
1)
b001110 +
05
b001110 9
0A
b101011 B
b001110 D
b010101 F
b001010 J
b101011 K
b01 L
b10 M
1N
0P
b101011 Q
b001110 R
b001110 T
1U
b101011 X
1\
b101011 _
1c
b101011 f
b001110 l
b010101 o
#34000000000000000
0!
0)
0N
0U
0\
0c
#35000000000000000
1!
b001010 '
b101011 (
1)
b001010 /
b101011 0
17
b001010 =
b101011 >
1A
b000110 B
b111000 C
b000111 D
b000001 E
b000110 F
b10 G
b11 H
b10 I
b10 L
b01 M
1N
b000110 Q
1U
b000110 X
1\
1^
b000110 _
1c
b000110 f
b001010 j
b111000 k
b000111 l
b000001 m
b10 n
b000110 o
#36000000000000000
0!
0)
0N
0U
0\
0c
#37000000000000000
1!
b000110 %
1)
b000110 -
07
b000110 ;
0A
b111000 B
b000110 D
b000101 F
b001011 J
b111000 K
b01 L
b10 M
1N
b111000 Q
1U
b111000 X
1\
0^
b111000 _
b000110 `
b000110 b
1c
b111000 f
b000110 l
b000101 o
#38000000000000000
0!
0)
0N
0U
0\
0c
#39000000000000000
1!
b001011 '
b111000 (
1)
b001011 /
b111000 0
b001011 =
b111000 >
b001000 B
b001000 C
b001000 J
b10 L
b01 M
1N
b001000 Q
1U
b001000 X
1\
b001000 _
1c
b001000 f
b001011 j
b001000 k
#40000000000000000
0!
0)
0N
0U
0\
0c
#41000000000000000
1!
b001000 '
1)
b001000 /
b001000 =
b010001 B
b010001 C
b001001 J
b010001 K
b01 L
b10 M
1N
b010001 Q
1U
b010001 X
1\
b010001 _
1c
b010001 f
b001000 j
b010001 k
#42000000000000000
0!
0)
0N
0U
0\
0c
#43000000000000000
1!
b001001 '
b010001 (
1)
b001001 /
b010001 0
15
b001001 =
b010001 >
1A
b010101 B
b101011 C
b001110 D
b000111 E
b010101 F
b00 G
b01 H
b01 I
b10 L
b01 M
1N
1P
b010101 Q
1U
b010101 X
1\
b010101 _
1c
b010101 f
b001001 j
b101011 k
b001110 l
b000111 m
b01 n
b010101 o
#44000000000000000
0!
0)
0N
0U
0\
0c
#45000000000000000
1!
b010101 #
1)
b010101 +
05
b010101 9
0A
b101011 B
b010101 D
b011100 F
b001010 J
b101011 K
b01 L
b10 M
1N
0P
b101011 Q
b010101 R
b010101 T
1U
b101011 X
1\
b101011 _
1c
b101011 f
b010101 l
b011100 o
#46000000000000000
0!
0)
0N
0U
0\
0c
#47000000000000000
1!
b001010 '
b101011 (
1)
b001010 /
b101011 0
17
b001010 =
b101011 >
1A
b000101 B
b111000 C
b000110 D
b000001 E
b000101 F
b10 G
b11 H
b10 I
b10 L
b01 M
1N
b000101 Q
1U
b000101 X
1\
1^
b000101 _
1c
b000101 f
b001010 j
b111000 k
b000110 l
b000001 m
b10 n
b000101 o
#48000000000000000
0!
0)
0N
0U
0\
0c
#49000000000000000
1!
b000101 %
1)
b000101 -
07
b000101 ;
0A
b111000 B
b000101 D
b000100 F
b001011 J
b111000 K
b01 L
b10 M
1N
b111000 Q
1U
b111000 X
1\
0^
b111000 _
b000101 `
b000101 b
1c
b111000 f
b000101 l
b000100 o
#50000000000000000
0!
0)
0N
0U
0\
0c
#51000000000000000
1!
b001011 '
b111000 (
1)
b001011 /
b111000 0
b001011 =
b111000 >
b001000 B
b001000 C
b001000 J
b10 L
b01 M
1N
b001000 Q
1U
b001000 X
1\
b001000 _
1c
b001000 f
b001011 j
b001000 k
#52000000000000000
0!
0)
0N
0U
0\
0c
#53000000000000000
1!
b001000 '
1)
b001000 /
b001000 =
b010001 B
b010001 C
b001001 J
b010001 K
b01 L
b10 M
1N
b010001 Q
1U
b010001 X
1\
b010001 _
1c
b010001 f
b001000 j
b010001 k
#54000000000000000
0!
0)
0N
0U
0\
0c
#55000000000000000
1!
b001001 '
b010001 (
1)
b001001 /
b010001 0
15
b001001 =
b010001 >
1A
b011100 B
b101011 C
b010101 D
b000111 E
b011100 F
b00 G
b01 H
b01 I
b10 L
b01 M
1N
1P
b011100 Q
1U
b011100 X
1\
b011100 _
1c
b011100 f
b001001 j
b101011 k
b010101 l
b000111 m
b01 n
b011100 o
#56000000000000000
0!
0)
0N
0U
0\
0c
#57000000000000000
1!
b011100 #
1)
b011100 +
05
b011100 9
0A
b101011 B
b011100 D
b100011 F
b001010 J
b101011 K
b01 L
b10 M
1N
0P
b101011 Q
b011100 R
b011100 T
1U
b101011 X
1\
b101011 _
1c
b101011 f
b011100 l
b100011 o
#58000000000000000
0!
0)
0N
0U
0\
0c
#59000000000000000
1!
b001010 '
b101011 (
1)
b001010 /
b101011 0
17
b001010 =
b101011 >
1A
b000100 B
b111000 C
b000101 D
b000001 E
b000100 F
b10 G
b11 H
b10 I
b10 L
b01 M
1N
b000100 Q
1U
b000100 X
1\
1^
b000100 _
1c
b000100 f
b001010 j
b111000 k
b000101 l
b000001 m
b10 n
b000100 o
#60000000000000000
0!
0)
0N
0U
0\
0c
#61000000000000000
1!
b000100 %
1)
b000100 -
07
b000100 ;
0A
b111000 B
b000100 D
b000011 F
b001011 J
b111000 K
b01 L
b10 M
1N
b111000 Q
1U
b111000 X
1\
0^
b111000 _
b000100 `
b000100 b
1c
b111000 f
b000100 l
b000011 o
#62000000000000000
0!
0)
0N
0U
0\
0c
#63000000000000000
1!
b001011 '
b111000 (
1)
b001011 /
b111000 0
b001011 =
b111000 >
b001000 B
b001000 C
b001000 J
b10 L
b01 M
1N
b001000 Q
1U
b001000 X
1\
b001000 _
1c
b001000 f
b001011 j
b001000 k
#64000000000000000
0!
0)
0N
0U
0\
0c
#65000000000000000
1!
b001000 '
1)
b001000 /
b001000 =
b010001 B
b010001 C
b001001 J
b010001 K
b01 L
b10 M
1N
b010001 Q
1U
b010001 X
1\
b010001 _
1c
b010001 f
b001000 j
b010001 k
#66000000000000000
0!
0)
0N
0U
0\
0c
#67000000000000000
1!
b001001 '
b010001 (
1)
b001001 /
b010001 0
15
b001001 =
b010001 >
1A
b100011 B
b101011 C
b011100 D
b000111 E
b100011 F
b00 G
b01 H
b01 I
b10 L
b01 M
1N
1P
b100011 Q
1U
b100011 X
1\
b100011 _
1c
b100011 f
b001001 j
b101011 k
b011100 l
b000111 m
b01 n
b100011 o
#68000000000000000
0!
0)
0N
0U
0\
0c
#69000000000000000
1!
b100011 #
1)
b100011 +
05
b100011 9
0A
b101011 B
b100011 D
b101010 F
b001010 J
b101011 K
b01 L
b10 M
1N
0P
b101011 Q
b100011 R
b100011 T
1U
b101011 X
1\
b101011 _
1c
b101011 f
b100011 l
b101010 o
#70000000000000000
0!
0)
0N
0U
0\
0c
#71000000000000000
1!
b001010 '
b101011 (
1)
b001010 /
b101011 0
17
b001010 =
b101011 >
1A
b000011 B
b111000 C
b000100 D
b000001 E
b000011 F
b10 G
b11 H
b10 I
b10 L
b01 M
1N
b000011 Q
1U
b000011 X
1\
1^
b000011 _
1c
b000011 f
b001010 j
b111000 k
b000100 l
b000001 m
b10 n
b000011 o
#72000000000000000
0!
0)
0N
0U
0\
0c
#73000000000000000
1!
b000011 %
1)
b000011 -
07
b000011 ;
0A
b111000 B
b000011 D
b000010 F
b001011 J
b111000 K
b01 L
b10 M
1N
b111000 Q
1U
b111000 X
1\
0^
b111000 _
b000011 `
b000011 b
1c
b111000 f
b000011 l
b000010 o
#74000000000000000
0!
0)
0N
0U
0\
0c
#75000000000000000
1!
b001011 '
b111000 (
1)
b001011 /
b111000 0
b001011 =
b111000 >
b001000 B
b001000 C
b001000 J
b10 L
b01 M
1N
b001000 Q
1U
b001000 X
1\
b001000 _
1c
b001000 f
b001011 j
b001000 k
#76000000000000000
0!
0)
0N
0U
0\
0c
#77000000000000000
1!
b001000 '
1)
b001000 /
b001000 =
b010001 B
b010001 C
b001001 J
b010001 K
b01 L
b10 M
1N
b010001 Q
1U
b010001 X
1\
b010001 _
1c
b010001 f
b001000 j
b010001 k
#78000000000000000
0!
0)
0N
0U
0\
0c
#79000000000000000
1!
b001001 '
b010001 (
1)
b001001 /
b010001 0
15
b001001 =
b010001 >
1A
b101010 B
b101011 C
b100011 D
b000111 E
b101010 F
b00 G
b01 H
b01 I
b10 L
b01 M
1N
1P
b101010 Q
1U
b101010 X
1\
b101010 _
1c
b101010 f
b001001 j
b101011 k
b100011 l
b000111 m
b01 n
b101010 o
#80000000000000000
0!
0)
0N
0U
0\
0c
#81000000000000000
1!
b101010 #
1)
b101010 +
05
b101010 9
0A
b101011 B
b101010 D
b110001 F
b001010 J
b101011 K
b01 L
b10 M
1N
0P
b101011 Q
b101010 R
b101010 T
1U
b101011 X
1\
b101011 _
1c
b101011 f
b101010 l
b110001 o
#82000000000000000
0!
0)
0N
0U
0\
0c
#83000000000000000
1!
b001010 '
b101011 (
1)
b001010 /
b101011 0
17
b001010 =
b101011 >
1A
b000010 B
b111000 C
b000011 D
b000001 E
b000010 F
b10 G
b11 H
b10 I
b10 L
b01 M
1N
b000010 Q
1U
b000010 X
1\
1^
b000010 _
1c
b000010 f
b001010 j
b111000 k
b000011 l
b000001 m
b10 n
b000010 o
#84000000000000000
0!
0)
0N
0U
0\
0c
#85000000000000000
1!
b000010 %
1)
b000010 -
07
b000010 ;
0A
b111000 B
b000010 D
b000001 F
b001011 J
b111000 K
b01 L
b10 M
1N
b111000 Q
1U
b111000 X
1\
0^
b111000 _
b000010 `
b000010 b
1c
b111000 f
b000010 l
b000001 o
#86000000000000000
0!
0)
0N
0U
0\
0c
#87000000000000000
1!
b001011 '
b111000 (
1)
b001011 /
b111000 0
b001011 =
b111000 >
b001000 B
b001000 C
b001000 J
b10 L
b01 M
1N
b001000 Q
1U
b001000 X
1\
b001000 _
1c
b001000 f
b001011 j
b001000 k
#88000000000000000
0!
0)
0N
0U
0\
0c
#89000000000000000
1!
b001000 '
1)
b001000 /
b001000 =
b010001 B
b010001 C
b001001 J
b010001 K
b01 L
b10 M
1N
b010001 Q
1U
b010001 X
1\
b010001 _
1c
b010001 f
b001000 j
b010001 k
#90000000000000000
0!
0)
0N
0U
0\
0c
#91000000000000000
1!
b001001 '
b010001 (
1)
b001001 /
b010001 0
15
b001001 =
b010001 >
1A
b110001 B
b101011 C
b101010 D
b000111 E
b110001 F
b00 G
b01 H
b01 I
b10 L
b01 M
1N
1P
b110001 Q
1U
b110001 X
1\
b110001 _
1c
b110001 f
b001001 j
b101011 k
b101010 l
b000111 m
b01 n
b110001 o
#92000000000000000
0!
0)
0N
0U
0\
0c
#93000000000000000
1!
b110001 #
1)
b110001 +
05
b110001 9
0A
b101011 B
b110001 D
b111000 F
b001010 J
b101011 K
b01 L
b10 M
1N
0P
b101011 Q
b110001 R
b110001 T
1U
b101011 X
1\
b101011 _
1c
b101011 f
b110001 l
b111000 o
#94000000000000000
0!
0)
0N
0U
0\
0c
#95000000000000000
1!
b001010 '
b101011 (
1)
b001010 /
b101011 0
17
b001010 =
b101011 >
1A
b000001 B
b111000 C
b000010 D
b000001 E
b000001 F
b10 G
b11 H
b10 I
b10 L
b01 M
1N
b000001 Q
1U
b000001 X
1\
1^
b000001 _
1c
b000001 f
b001010 j
b111000 k
b000010 l
b000001 m
b10 n
b000001 o
#96000000000000000
0!
0)
0N
0U
0\
0c
#97000000000000000
1!
b000001 %
1)
b000001 -
07
b000001 ;
0A
b111000 B
b000001 D
b000000 F
b001011 J
b111000 K
b01 L
b10 M
1N
b111000 Q
1U
b111000 X
1\
0^
b111000 _
b000001 `
b000001 b
1c
b111000 f
b000001 l
b000000 o
#98000000000000000
0!
0)
0N
0U
0\
0c
#99000000000000000
1!
b001011 '
b111000 (
1)
b001011 /
b111000 0
b001011 =
b111000 >
b001000 B
b001000 C
b001000 J
b10 L
b01 M
1N
b001000 Q
1U
b001000 X
1\
b001000 _
1c
b001000 f
b001011 j
b001000 k
#100000000000000000
0!
0)
0N
0U
0\
0c
#101000000000000000
1!
b001000 '
1)
b001000 /
b001000 =
b010001 B
b010001 C
b001001 J
b010001 K
b01 L
b10 M
1N
b010001 Q
1U
b010001 X
1\
b010001 _
1c
b010001 f
b001000 j
b010001 k
#102000000000000000
0!
0)
0N
0U
0\
0c
#103000000000000000
1!
b001001 '
b010001 (
1)
b001001 /
b010001 0
15
b001001 =
b010001 >
1A
b111000 B
b101011 C
b110001 D
b000111 E
b111000 F
b00 G
b01 H
b01 I
b10 L
b01 M
1N
1P
b111000 Q
1U
b111000 X
1\
b111000 _
1c
b111000 f
b001001 j
b101011 k
b110001 l
b000111 m
b01 n
b111000 o
#104000000000000000
0!
0)
0N
0U
0\
0c
#105000000000000000
1!
b111000 #
1)
b111000 +
05
b111000 9
0A
b101011 B
b111000 D
b111111 F
b001010 J
b101011 K
b01 L
b10 M
1N
0P
b101011 Q
b111000 R
b111000 T
1U
b101011 X
1\
b101011 _
1c
b101011 f
b111000 l
b111111 o
#106000000000000000
0!
0)
0N
0U
0\
0c
#107000000000000000
1!
b001010 '
b101011 (
1)
b001010 /
b101011 0
17
b001010 =
b101011 >
1A
b000000 B
b111000 C
b000001 D
b000001 E
b000000 F
b10 G
b11 H
b10 I
b10 L
b01 M
1N
b000000 Q
1U
b000000 X
1\
1^
b000000 _
1c
b000000 f
b001010 j
b111000 k
b000001 l
b000001 m
b10 n
b000000 o
#108000000000000000
0!
0)
0N
0U
0\
0c
#109000000000000000
1!
b000000 %
1)
b000000 -
13
07
b000000 ;
0A
b111000 B
b000000 D
b111111 F
b001011 J
b111000 K
b01 L
b10 M
1N
b111000 Q
1U
b111000 X
1\
0^
b111000 _
b000000 `
1a
b000000 b
1c
b111000 f
b000000 l
b111111 o
#110000000000000000
0!
0)
0N
0U
0\
0c
#111000000000000000
1!
b001011 '
b111000 (
1)
b001011 /
b111000 0
b001011 =
b111000 >
b001000 B
b001000 C
b001100 J
b10 L
b01 M
1N
b001000 Q
1U
b001000 X
1\
b001000 _
1c
b001000 f
b001011 j
b001000 k
